%YAML 1.1
%TAG !u! tag:unity3d.com,2011:
--- !u!1045 &1
EditorBuildSettings:
  m_ObjectHideFlags: 0
  serializedVersion: 2
  m_Scenes:
  - enabled: 1
    path: Assets/Scenes/SampleScene.unity
    guid: 4a77739536a6f924d89a86b035cf0ad8
  - enabled: 1
    path: Assets/Scenes/GameOver.unity
    guid: 112912d94a1c64c02bb8df12fcd28627
  m_configObjects: {}
