%YAML 1.1
%TAG !u! tag:unity3d.com,2011:
--- !u!212 &1670816151
SpriteRenderer:
  m_ObjectHideFlags: 0
  m_CorrespondingSourceObject: {fileID: 0}
  m_PrefabInstance: {fileID: 0}
  m_PrefabAsset: {fileID: 0}
  m_GameObject: {fileID: 1600575457074762390}
  m_Enabled: 1
  m_CastShadows: 0
  m_ReceiveShadows: 0
  m_DynamicOccludee: 1
  m_MotionVectors: 1
  m_LightProbeUsage: 1
  m_ReflectionProbeUsage: 1
  m_RenderingLayerMask: 1
  m_RendererPriority: 0
  m_Materials:
  - {fileID: 10754, guid: 0000000000000000f000000000000000, type: 0}
  m_StaticBatchInfo:
    firstSubMesh: 0
    subMeshCount: 0
  m_StaticBatchRoot: {fileID: 0}
  m_ProbeAnchor: {fileID: 0}
  m_LightProbeVolumeOverride: {fileID: 0}
  m_ScaleInLightmap: 1
  m_PreserveUVs: 0
  m_IgnoreNormalsForChartDetection: 0
  m_ImportantGI: 0
  m_StitchLightmapSeams: 0
  m_SelectedEditorRenderState: 0
  m_MinimumChartSize: 4
  m_AutoUVMaxDistance: 0.5
  m_AutoUVMaxAngle: 89
  m_LightmapParameters: {fileID: 0}
  m_SortingLayerID: 272154705
  m_SortingLayer: 6
  m_SortingOrder: 1
  m_Sprite: {fileID: 0}
  m_Color: {r: 1, g: 1, b: 1, a: 1}
  m_FlipX: 0
  m_FlipY: 0
  m_DrawMode: 0
  m_Size: {x: 1, y: 1}
  m_AdaptiveModeThreshold: 0.5
  m_SpriteTileMode: 0
  m_WasSpriteAssigned: 0
  m_MaskInteraction: 0
  m_SpriteSortPoint: 0
--- !u!1001 &1282297821829770964
PrefabInstance:
  m_ObjectHideFlags: 0
  serializedVersion: 2
  m_Modification:
    m_TransformParent: {fileID: 0}
    m_Modifications:
    - target: {fileID: 575829593258064962, guid: 4c62a3daf34d7064290c8495ac3eb481,
        type: 3}
      propertyPath: m_Name
      value: Mejoraaaaa Variant
      objectReference: {fileID: 0}
    - target: {fileID: 575829593258064963, guid: 4c62a3daf34d7064290c8495ac3eb481,
        type: 3}
      propertyPath: m_LocalPosition.x
      value: 0
      objectReference: {fileID: 0}
    - target: {fileID: 575829593258064963, guid: 4c62a3daf34d7064290c8495ac3eb481,
        type: 3}
      propertyPath: m_LocalPosition.y
      value: 0
      objectReference: {fileID: 0}
    - target: {fileID: 575829593258064963, guid: 4c62a3daf34d7064290c8495ac3eb481,
        type: 3}
      propertyPath: m_LocalPosition.z
      value: 0
      objectReference: {fileID: 0}
    - target: {fileID: 575829593258064963, guid: 4c62a3daf34d7064290c8495ac3eb481,
        type: 3}
      propertyPath: m_LocalRotation.x
      value: 0
      objectReference: {fileID: 0}
    - target: {fileID: 575829593258064963, guid: 4c62a3daf34d7064290c8495ac3eb481,
        type: 3}
      propertyPath: m_LocalRotation.y
      value: 0
      objectReference: {fileID: 0}
    - target: {fileID: 575829593258064963, guid: 4c62a3daf34d7064290c8495ac3eb481,
        type: 3}
      propertyPath: m_LocalRotation.z
      value: 0
      objectReference: {fileID: 0}
    - target: {fileID: 575829593258064963, guid: 4c62a3daf34d7064290c8495ac3eb481,
        type: 3}
      propertyPath: m_LocalRotation.w
      value: 1
      objectReference: {fileID: 0}
    - target: {fileID: 575829593258064963, guid: 4c62a3daf34d7064290c8495ac3eb481,
        type: 3}
      propertyPath: m_RootOrder
      value: 0
      objectReference: {fileID: 0}
    - target: {fileID: 575829593258064963, guid: 4c62a3daf34d7064290c8495ac3eb481,
        type: 3}
      propertyPath: m_LocalEulerAnglesHint.x
      value: 0
      objectReference: {fileID: 0}
    - target: {fileID: 575829593258064963, guid: 4c62a3daf34d7064290c8495ac3eb481,
        type: 3}
      propertyPath: m_LocalEulerAnglesHint.y
      value: 0
      objectReference: {fileID: 0}
    - target: {fileID: 575829593258064963, guid: 4c62a3daf34d7064290c8495ac3eb481,
        type: 3}
      propertyPath: m_LocalEulerAnglesHint.z
      value: 0
      objectReference: {fileID: 0}
    - target: {fileID: 575829593258064963, guid: 4c62a3daf34d7064290c8495ac3eb481,
        type: 3}
      propertyPath: m_AnchoredPosition.x
      value: -47.070007
      objectReference: {fileID: 0}
    - target: {fileID: 575829593258064963, guid: 4c62a3daf34d7064290c8495ac3eb481,
        type: 3}
      propertyPath: m_AnchoredPosition.y
      value: 0.19000244
      objectReference: {fileID: 0}
    - target: {fileID: 575829593258064963, guid: 4c62a3daf34d7064290c8495ac3eb481,
        type: 3}
      propertyPath: m_SizeDelta.x
      value: 5.52
      objectReference: {fileID: 0}
    - target: {fileID: 575829593258064963, guid: 4c62a3daf34d7064290c8495ac3eb481,
        type: 3}
      propertyPath: m_SizeDelta.y
      value: 4.7
      objectReference: {fileID: 0}
    - target: {fileID: 575829593258064963, guid: 4c62a3daf34d7064290c8495ac3eb481,
        type: 3}
      propertyPath: m_AnchorMin.x
      value: 0
      objectReference: {fileID: 0}
    - target: {fileID: 575829593258064963, guid: 4c62a3daf34d7064290c8495ac3eb481,
        type: 3}
      propertyPath: m_AnchorMin.y
      value: 1
      objectReference: {fileID: 0}
    - target: {fileID: 575829593258064963, guid: 4c62a3daf34d7064290c8495ac3eb481,
        type: 3}
      propertyPath: m_AnchorMax.x
      value: 0
      objectReference: {fileID: 0}
    - target: {fileID: 575829593258064963, guid: 4c62a3daf34d7064290c8495ac3eb481,
        type: 3}
      propertyPath: m_AnchorMax.y
      value: 1
      objectReference: {fileID: 0}
    - target: {fileID: 575829593258064963, guid: 4c62a3daf34d7064290c8495ac3eb481,
        type: 3}
      propertyPath: m_Pivot.x
      value: 0.5
      objectReference: {fileID: 0}
    - target: {fileID: 575829593258064963, guid: 4c62a3daf34d7064290c8495ac3eb481,
        type: 3}
      propertyPath: m_Pivot.y
      value: 0.5
      objectReference: {fileID: 0}
    - target: {fileID: 575829593258064963, guid: 4c62a3daf34d7064290c8495ac3eb481,
        type: 3}
      propertyPath: m_LocalScale.x
      value: 0.7454819
      objectReference: {fileID: 0}
    - target: {fileID: 575829593258064963, guid: 4c62a3daf34d7064290c8495ac3eb481,
        type: 3}
      propertyPath: m_LocalScale.y
      value: 1.5371046
      objectReference: {fileID: 0}
    - target: {fileID: 575829593258064963, guid: 4c62a3daf34d7064290c8495ac3eb481,
        type: 3}
      propertyPath: m_LocalScale.z
      value: 1.1178943
      objectReference: {fileID: 0}
    - target: {fileID: 575829593258064988, guid: 4c62a3daf34d7064290c8495ac3eb481,
        type: 3}
      propertyPath: m_OnClick.m_PersistentCalls.m_Calls.Array.data[0].m_Target
      value: 
      objectReference: {fileID: 0}
    - target: {fileID: 575829593258064988, guid: 4c62a3daf34d7064290c8495ac3eb481,
        type: 3}
      propertyPath: m_OnClick.m_PersistentCalls.m_Calls.Array.data[0].m_MethodName
      value: SelectArquenoUnidad
      objectReference: {fileID: 0}
    - target: {fileID: 575829593258064988, guid: 4c62a3daf34d7064290c8495ac3eb481,
        type: 3}
      propertyPath: m_OnClick.m_PersistentCalls.m_Calls.Array.data[0].m_Arguments.m_ObjectArgumentAssemblyTypeName
      value: UnityEngine.Object, UnityEngine
      objectReference: {fileID: 0}
    - target: {fileID: 575829593258064989, guid: 4c62a3daf34d7064290c8495ac3eb481,
        type: 3}
      propertyPath: m_Sprite
      value: 
      objectReference: {fileID: 21300000, guid: 1d80a3c464a06494da9cfe31e5c503a4,
        type: 3}
    m_RemovedComponents: []
  m_SourcePrefab: {fileID: 100100000, guid: 4c62a3daf34d7064290c8495ac3eb481, type: 3}
--- !u!1 &1600575457074762390 stripped
GameObject:
  m_CorrespondingSourceObject: {fileID: 575829593258064962, guid: 4c62a3daf34d7064290c8495ac3eb481,
    type: 3}
  m_PrefabInstance: {fileID: 1282297821829770964}
  m_PrefabAsset: {fileID: 0}
